{
  "posts": [
    {
      "id": 1,
      "firstName": "Avishek ",
      "lastName": "Kumar",
      "email": "avishek.kumar@gmail.com",
      "mobile": "1234567890",
      "salary": "65000"
    },
    {
      "id": 2,
      "firstName": " Anindya ",
      "lastName": "Sinha",
      "email": "anindya.sinha@gmail.com",
      "mobile": "1235647890",
      "salary": "40000"
    },
    {
      "id": 3,
      "firstName": "Subhojeet",
      "lastName": "Mukherjee",
      "email": "subhojeet.mukherjee@gmail.com",
      "mobile": "1235647890",
      "salary": "50000"
    },
    {
      "id": 4,
      "firstName": "Karan",
      "lastName": "Kumar",
      "email": "karan.kumar@gmail.com",
      "mobile": "1235647890",
      "salary": "40000"
    },
    {
      "id": 5,
      "firstName": "Raghav ",
      "lastName": "Chowdhury",
      "email": "raghav.choudhury@gmail.com",
      "mobile": "1235647890",
      "salary": "50000"
    },
    {
      "id": 6,
      "firstName": "Test Employee",
      "lastName": "Test Last Name",
      "email": "test.employee@email.com",
      "mobile": "123456789",
      "salary": "60000"
    }
  ],
  "comments": [
    {
      "id": 1,
      "body": "some comment",
      "postId": 1
    }
  ],
  "profile": {
    "name": "typicode"
  }
}